{
    "inputMessageMetadata": {
        "messagePayload": {
            "connectorName": "#_custom_mule_metadata_type_#",
            "typeId": "RuleEE"
        }
    },
    "outputMessageMetadata": {},
    "id": "6b6f58ad-9766-42d3-b853-d48f55bd69dc",
    "version": "5.2.0.0"
}