{
    "inputMessageMetadata": {
        "messagePayload": {
            "connectorName": "#_custom_mule_metadata_type_#",
            "typeId": "RuleBBH"
        }
    },
    "outputMessageMetadata": {},
    "id": "a90ed91d-121e-44bb-a653-0e1c298b81e0",
    "version": "5.2.0.0"
}